<?xml version='1.0' encoding='UTF-8'?>
<graphml>
 <key id='nodeKey1'
     for='node'
     attr.name='VertexCoordinates'
     attr.type='String' />
 <graph id='Graph1'
     edgedefault='undirected'>
  <node id='1'>
   <data key='nodeKey1'>List[-0.8660254037844389`, 0.5000000000000008`]</data>
  </node>
  <node id='2'>
   <data key='nodeKey1'>List[-0.8660254037844384`, -0.4999999999999994`]</data>
  </node>
  <node id='3'>
   <data key='nodeKey1'>List[3.8285686989269494`*^-16, -1.`]</data>
  </node>
  <node id='4'>
   <data key='nodeKey1'>List[0.8660254037844389`, -0.5000000000000012`]</data>
  </node>
  <node id='5'>
   <data key='nodeKey1'>List[0.8660254037844386`, 0.4999999999999993`]</data>
  </node>
  <node id='6'>
   <data key='nodeKey1'>List[1.8369701987210297`*^-16, 1.`]</data>
  </node>
  <edge id='Graph1-e1'
      source='1'
      target='6' />
  <edge id='Graph1-e2'
      source='2'
      target='5' />
  <edge id='Graph1-e3'
      source='3'
      target='4' />
  <edge id='Graph1-e4'
      source='3'
      target='6' />
  <edge id='Graph1-e5'
      source='4'
      target='5' />
 </graph>
 <graph id='Graph2'
     edgedefault='undirected'>
  <node id='1'>
   <data key='nodeKey1'>List[-0.8660254037844389`, 0.5000000000000008`]</data>
  </node>
  <node id='2'>
   <data key='nodeKey1'>List[-0.8660254037844384`, -0.4999999999999994`]</data>
  </node>
  <node id='3'>
   <data key='nodeKey1'>List[3.8285686989269494`*^-16, -1.`]</data>
  </node>
  <node id='4'>
   <data key='nodeKey1'>List[0.8660254037844389`, -0.5000000000000012`]</data>
  </node>
  <node id='5'>
   <data key='nodeKey1'>List[0.8660254037844386`, 0.4999999999999993`]</data>
  </node>
  <node id='6'>
   <data key='nodeKey1'>List[1.8369701987210297`*^-16, 1.`]</data>
  </node>
  <edge id='Graph2-e1'
      source='1'
      target='5' />
  <edge id='Graph2-e2'
      source='1'
      target='6' />
  <edge id='Graph2-e3'
      source='2'
      target='4' />
  <edge id='Graph2-e4'
      source='2'
      target='6' />
  <edge id='Graph2-e5'
      source='3'
      target='4' />
  <edge id='Graph2-e6'
      source='3'
      target='5' />
 </graph>
 <graph id='Graph3'
     edgedefault='undirected'>
  <node id='1'>
   <data key='nodeKey1'>List[-0.8660254037844389`, 0.5000000000000008`]</data>
  </node>
  <node id='2'>
   <data key='nodeKey1'>List[-0.8660254037844384`, -0.4999999999999994`]</data>
  </node>
  <node id='3'>
   <data key='nodeKey1'>List[3.8285686989269494`*^-16, -1.`]</data>
  </node>
  <node id='4'>
   <data key='nodeKey1'>List[0.8660254037844389`, -0.5000000000000012`]</data>
  </node>
  <node id='5'>
   <data key='nodeKey1'>List[0.8660254037844386`, 0.4999999999999993`]</data>
  </node>
  <node id='6'>
   <data key='nodeKey1'>List[1.8369701987210297`*^-16, 1.`]</data>
  </node>
  <edge id='Graph3-e1'
      source='1'
      target='6' />
  <edge id='Graph3-e2'
      source='2'
      target='5' />
  <edge id='Graph3-e3'
      source='2'
      target='6' />
  <edge id='Graph3-e4'
      source='3'
      target='4' />
  <edge id='Graph3-e5'
      source='3'
      target='5' />
  <edge id='Graph3-e6'
      source='4'
      target='5' />
 </graph>
 <graph id='Graph4'
     edgedefault='undirected'>
  <node id='1'>
   <data key='nodeKey1'>List[-0.8660254037844389`, 0.5000000000000008`]</data>
  </node>
  <node id='2'>
   <data key='nodeKey1'>List[-0.8660254037844384`, -0.4999999999999994`]</data>
  </node>
  <node id='3'>
   <data key='nodeKey1'>List[3.8285686989269494`*^-16, -1.`]</data>
  </node>
  <node id='4'>
   <data key='nodeKey1'>List[0.8660254037844389`, -0.5000000000000012`]</data>
  </node>
  <node id='5'>
   <data key='nodeKey1'>List[0.8660254037844386`, 0.4999999999999993`]</data>
  </node>
  <node id='6'>
   <data key='nodeKey1'>List[1.8369701987210297`*^-16, 1.`]</data>
  </node>
  <edge id='Graph4-e1'
      source='1'
      target='6' />
  <edge id='Graph4-e2'
      source='2'
      target='5' />
  <edge id='Graph4-e3'
      source='3'
      target='4' />
  <edge id='Graph4-e4'
      source='3'
      target='6' />
  <edge id='Graph4-e5'
      source='4'
      target='5' />
  <edge id='Graph4-e6'
      source='4'
      target='6' />
 </graph>
 <graph id='Graph5'
     edgedefault='undirected'>
  <node id='1'>
   <data key='nodeKey1'>List[-0.8660254037844389`, 0.5000000000000008`]</data>
  </node>
  <node id='2'>
   <data key='nodeKey1'>List[-0.8660254037844384`, -0.4999999999999994`]</data>
  </node>
  <node id='3'>
   <data key='nodeKey1'>List[3.8285686989269494`*^-16, -1.`]</data>
  </node>
  <node id='4'>
   <data key='nodeKey1'>List[0.8660254037844389`, -0.5000000000000012`]</data>
  </node>
  <node id='5'>
   <data key='nodeKey1'>List[0.8660254037844386`, 0.4999999999999993`]</data>
  </node>
  <node id='6'>
   <data key='nodeKey1'>List[1.8369701987210297`*^-16, 1.`]</data>
  </node>
  <edge id='Graph5-e1'
      source='1'
      target='6' />
  <edge id='Graph5-e2'
      source='2'
      target='5' />
  <edge id='Graph5-e3'
      source='3'
      target='4' />
  <edge id='Graph5-e4'
      source='4'
      target='5' />
  <edge id='Graph5-e5'
      source='4'
      target='6' />
  <edge id='Graph5-e6'
      source='5'
      target='6' />
 </graph>
 <graph id='Graph6'
     edgedefault='undirected'>
  <node id='1'>
   <data key='nodeKey1'>List[-0.8660254037844389`, 0.5000000000000008`]</data>
  </node>
  <node id='2'>
   <data key='nodeKey1'>List[-0.8660254037844384`, -0.4999999999999994`]</data>
  </node>
  <node id='3'>
   <data key='nodeKey1'>List[3.8285686989269494`*^-16, -1.`]</data>
  </node>
  <node id='4'>
   <data key='nodeKey1'>List[0.8660254037844389`, -0.5000000000000012`]</data>
  </node>
  <node id='5'>
   <data key='nodeKey1'>List[0.8660254037844386`, 0.4999999999999993`]</data>
  </node>
  <node id='6'>
   <data key='nodeKey1'>List[1.8369701987210297`*^-16, 1.`]</data>
  </node>
  <edge id='Graph6-e1'
      source='1'
      target='5' />
  <edge id='Graph6-e2'
      source='1'
      target='6' />
  <edge id='Graph6-e3'
      source='2'
      target='3' />
  <edge id='Graph6-e4'
      source='2'
      target='4' />
  <edge id='Graph6-e5'
      source='3'
      target='4' />
  <edge id='Graph6-e6'
      source='4'
      target='6' />
  <edge id='Graph6-e7'
      source='5'
      target='6' />
 </graph>
 <graph id='Graph7'
     edgedefault='undirected'>
  <node id='1'>
   <data key='nodeKey1'>List[-0.8660254037844389`, 0.5000000000000008`]</data>
  </node>
  <node id='2'>
   <data key='nodeKey1'>List[-0.8660254037844384`, -0.4999999999999994`]</data>
  </node>
  <node id='3'>
   <data key='nodeKey1'>List[3.8285686989269494`*^-16, -1.`]</data>
  </node>
  <node id='4'>
   <data key='nodeKey1'>List[0.8660254037844389`, -0.5000000000000012`]</data>
  </node>
  <node id='5'>
   <data key='nodeKey1'>List[0.8660254037844386`, 0.4999999999999993`]</data>
  </node>
  <node id='6'>
   <data key='nodeKey1'>List[1.8369701987210297`*^-16, 1.`]</data>
  </node>
  <edge id='Graph7-e1'
      source='1'
      target='5' />
  <edge id='Graph7-e2'
      source='1'
      target='6' />
  <edge id='Graph7-e3'
      source='2'
      target='4' />
  <edge id='Graph7-e4'
      source='2'
      target='6' />
  <edge id='Graph7-e5'
      source='3'
      target='4' />
  <edge id='Graph7-e6'
      source='3'
      target='5' />
  <edge id='Graph7-e7'
      source='5'
      target='6' />
 </graph>
 <graph id='Graph8'
     edgedefault='undirected'>
  <node id='1'>
   <data key='nodeKey1'>List[-0.8660254037844389`, 0.5000000000000008`]</data>
  </node>
  <node id='2'>
   <data key='nodeKey1'>List[-0.8660254037844384`, -0.4999999999999994`]</data>
  </node>
  <node id='3'>
   <data key='nodeKey1'>List[3.8285686989269494`*^-16, -1.`]</data>
  </node>
  <node id='4'>
   <data key='nodeKey1'>List[0.8660254037844389`, -0.5000000000000012`]</data>
  </node>
  <node id='5'>
   <data key='nodeKey1'>List[0.8660254037844386`, 0.4999999999999993`]</data>
  </node>
  <node id='6'>
   <data key='nodeKey1'>List[1.8369701987210297`*^-16, 1.`]</data>
  </node>
  <edge id='Graph8-e1'
      source='1'
      target='6' />
  <edge id='Graph8-e2'
      source='2'
      target='4' />
  <edge id='Graph8-e3'
      source='2'
      target='5' />
  <edge id='Graph8-e4'
      source='3'
      target='4' />
  <edge id='Graph8-e5'
      source='3'
      target='5' />
  <edge id='Graph8-e6'
      source='3'
      target='6' />
  <edge id='Graph8-e7'
      source='4'
      target='5' />
 </graph>
 <graph id='Graph9'
     edgedefault='undirected'>
  <node id='1'>
   <data key='nodeKey1'>List[-0.8660254037844389`, 0.5000000000000008`]</data>
  </node>
  <node id='2'>
   <data key='nodeKey1'>List[-0.8660254037844384`, -0.4999999999999994`]</data>
  </node>
  <node id='3'>
   <data key='nodeKey1'>List[3.8285686989269494`*^-16, -1.`]</data>
  </node>
  <node id='4'>
   <data key='nodeKey1'>List[0.8660254037844389`, -0.5000000000000012`]</data>
  </node>
  <node id='5'>
   <data key='nodeKey1'>List[0.8660254037844386`, 0.4999999999999993`]</data>
  </node>
  <node id='6'>
   <data key='nodeKey1'>List[1.8369701987210297`*^-16, 1.`]</data>
  </node>
  <edge id='Graph9-e1'
      source='1'
      target='6' />
  <edge id='Graph9-e2'
      source='2'
      target='4' />
  <edge id='Graph9-e3'
      source='2'
      target='5' />
  <edge id='Graph9-e4'
      source='3'
      target='4' />
  <edge id='Graph9-e5'
      source='3'
      target='5' />
  <edge id='Graph9-e6'
      source='3'
      target='6' />
  <edge id='Graph9-e7'
      source='5'
      target='6' />
 </graph>
 <graph id='Graph10'
     edgedefault='undirected'>
  <node id='1'>
   <data key='nodeKey1'>List[-0.8660254037844389`, 0.5000000000000008`]</data>
  </node>
  <node id='2'>
   <data key='nodeKey1'>List[-0.8660254037844384`, -0.4999999999999994`]</data>
  </node>
  <node id='3'>
   <data key='nodeKey1'>List[3.8285686989269494`*^-16, -1.`]</data>
  </node>
  <node id='4'>
   <data key='nodeKey1'>List[0.8660254037844389`, -0.5000000000000012`]</data>
  </node>
  <node id='5'>
   <data key='nodeKey1'>List[0.8660254037844386`, 0.4999999999999993`]</data>
  </node>
  <node id='6'>
   <data key='nodeKey1'>List[1.8369701987210297`*^-16, 1.`]</data>
  </node>
  <edge id='Graph10-e1'
      source='1'
      target='6' />
  <edge id='Graph10-e2'
      source='2'
      target='5' />
  <edge id='Graph10-e3'
      source='2'
      target='6' />
  <edge id='Graph10-e4'
      source='3'
      target='4' />
  <edge id='Graph10-e5'
      source='3'
      target='5' />
  <edge id='Graph10-e6'
      source='4'
      target='5' />
  <edge id='Graph10-e7'
      source='5'
      target='6' />
 </graph>
 <graph id='Graph11'
     edgedefault='undirected'>
  <node id='1'>
   <data key='nodeKey1'>List[-0.8660254037844389`, 0.5000000000000008`]</data>
  </node>
  <node id='2'>
   <data key='nodeKey1'>List[-0.8660254037844384`, -0.4999999999999994`]</data>
  </node>
  <node id='3'>
   <data key='nodeKey1'>List[3.8285686989269494`*^-16, -1.`]</data>
  </node>
  <node id='4'>
   <data key='nodeKey1'>List[0.8660254037844389`, -0.5000000000000012`]</data>
  </node>
  <node id='5'>
   <data key='nodeKey1'>List[0.8660254037844386`, 0.4999999999999993`]</data>
  </node>
  <node id='6'>
   <data key='nodeKey1'>List[1.8369701987210297`*^-16, 1.`]</data>
  </node>
  <edge id='Graph11-e1'
      source='1'
      target='6' />
  <edge id='Graph11-e2'
      source='2'
      target='5' />
  <edge id='Graph11-e3'
      source='3'
      target='4' />
  <edge id='Graph11-e4'
      source='3'
      target='5' />
  <edge id='Graph11-e5'
      source='3'
      target='6' />
  <edge id='Graph11-e6'
      source='4'
      target='5' />
  <edge id='Graph11-e7'
      source='4'
      target='6' />
 </graph>
 <graph id='Graph12'
     edgedefault='undirected'>
  <node id='1'>
   <data key='nodeKey1'>List[-0.8660254037844389`, 0.5000000000000008`]</data>
  </node>
  <node id='2'>
   <data key='nodeKey1'>List[-0.8660254037844384`, -0.4999999999999994`]</data>
  </node>
  <node id='3'>
   <data key='nodeKey1'>List[3.8285686989269494`*^-16, -1.`]</data>
  </node>
  <node id='4'>
   <data key='nodeKey1'>List[0.8660254037844389`, -0.5000000000000012`]</data>
  </node>
  <node id='5'>
   <data key='nodeKey1'>List[0.8660254037844386`, 0.4999999999999993`]</data>
  </node>
  <node id='6'>
   <data key='nodeKey1'>List[1.8369701987210297`*^-16, 1.`]</data>
  </node>
  <edge id='Graph12-e1'
      source='1'
      target='5' />
  <edge id='Graph12-e2'
      source='1'
      target='6' />
  <edge id='Graph12-e3'
      source='2'
      target='3' />
  <edge id='Graph12-e4'
      source='2'
      target='4' />
  <edge id='Graph12-e5'
      source='2'
      target='6' />
  <edge id='Graph12-e6'
      source='3'
      target='4' />
  <edge id='Graph12-e7'
      source='3'
      target='6' />
  <edge id='Graph12-e8'
      source='4'
      target='5' />
 </graph>
 <graph id='Graph13'
     edgedefault='undirected'>
  <node id='1'>
   <data key='nodeKey1'>List[-0.8660254037844389`, 0.5000000000000008`]</data>
  </node>
  <node id='2'>
   <data key='nodeKey1'>List[-0.8660254037844384`, -0.4999999999999994`]</data>
  </node>
  <node id='3'>
   <data key='nodeKey1'>List[3.8285686989269494`*^-16, -1.`]</data>
  </node>
  <node id='4'>
   <data key='nodeKey1'>List[0.8660254037844389`, -0.5000000000000012`]</data>
  </node>
  <node id='5'>
   <data key='nodeKey1'>List[0.8660254037844386`, 0.4999999999999993`]</data>
  </node>
  <node id='6'>
   <data key='nodeKey1'>List[1.8369701987210297`*^-16, 1.`]</data>
  </node>
  <edge id='Graph13-e1'
      source='1'
      target='5' />
  <edge id='Graph13-e2'
      source='1'
      target='6' />
  <edge id='Graph13-e3'
      source='2'
      target='3' />
  <edge id='Graph13-e4'
      source='2'
      target='4' />
  <edge id='Graph13-e5'
      source='3'
      target='4' />
  <edge id='Graph13-e6'
      source='3'
      target='6' />
  <edge id='Graph13-e7'
      source='4'
      target='5' />
  <edge id='Graph13-e8'
      source='5'
      target='6' />
 </graph>
 <graph id='Graph14'
     edgedefault='undirected'>
  <node id='1'>
   <data key='nodeKey1'>List[-0.8660254037844389`, 0.5000000000000008`]</data>
  </node>
  <node id='2'>
   <data key='nodeKey1'>List[-0.8660254037844384`, -0.4999999999999994`]</data>
  </node>
  <node id='3'>
   <data key='nodeKey1'>List[3.8285686989269494`*^-16, -1.`]</data>
  </node>
  <node id='4'>
   <data key='nodeKey1'>List[0.8660254037844389`, -0.5000000000000012`]</data>
  </node>
  <node id='5'>
   <data key='nodeKey1'>List[0.8660254037844386`, 0.4999999999999993`]</data>
  </node>
  <node id='6'>
   <data key='nodeKey1'>List[1.8369701987210297`*^-16, 1.`]</data>
  </node>
  <edge id='Graph14-e1'
      source='1'
      target='5' />
  <edge id='Graph14-e2'
      source='1'
      target='6' />
  <edge id='Graph14-e3'
      source='2'
      target='3' />
  <edge id='Graph14-e4'
      source='2'
      target='4' />
  <edge id='Graph14-e5'
      source='3'
      target='4' />
  <edge id='Graph14-e6'
      source='4'
      target='5' />
  <edge id='Graph14-e7'
      source='4'
      target='6' />
  <edge id='Graph14-e8'
      source='5'
      target='6' />
 </graph>
 <graph id='Graph15'
     edgedefault='undirected'>
  <node id='1'>
   <data key='nodeKey1'>List[-0.8660254037844389`, 0.5000000000000008`]</data>
  </node>
  <node id='2'>
   <data key='nodeKey1'>List[-0.8660254037844384`, -0.4999999999999994`]</data>
  </node>
  <node id='3'>
   <data key='nodeKey1'>List[3.8285686989269494`*^-16, -1.`]</data>
  </node>
  <node id='4'>
   <data key='nodeKey1'>List[0.8660254037844389`, -0.5000000000000012`]</data>
  </node>
  <node id='5'>
   <data key='nodeKey1'>List[0.8660254037844386`, 0.4999999999999993`]</data>
  </node>
  <node id='6'>
   <data key='nodeKey1'>List[1.8369701987210297`*^-16, 1.`]</data>
  </node>
  <edge id='Graph15-e1'
      source='1'
      target='5' />
  <edge id='Graph15-e2'
      source='1'
      target='6' />
  <edge id='Graph15-e3'
      source='2'
      target='4' />
  <edge id='Graph15-e4'
      source='2'
      target='6' />
  <edge id='Graph15-e5'
      source='3'
      target='4' />
  <edge id='Graph15-e6'
      source='3'
      target='5' />
  <edge id='Graph15-e7'
      source='4'
      target='6' />
  <edge id='Graph15-e8'
      source='5'
      target='6' />
 </graph>
 <graph id='Graph16'
     edgedefault='undirected'>
  <node id='1'>
   <data key='nodeKey1'>List[-0.8660254037844389`, 0.5000000000000008`]</data>
  </node>
  <node id='2'>
   <data key='nodeKey1'>List[-0.8660254037844384`, -0.4999999999999994`]</data>
  </node>
  <node id='3'>
   <data key='nodeKey1'>List[3.8285686989269494`*^-16, -1.`]</data>
  </node>
  <node id='4'>
   <data key='nodeKey1'>List[0.8660254037844389`, -0.5000000000000012`]</data>
  </node>
  <node id='5'>
   <data key='nodeKey1'>List[0.8660254037844386`, 0.4999999999999993`]</data>
  </node>
  <node id='6'>
   <data key='nodeKey1'>List[1.8369701987210297`*^-16, 1.`]</data>
  </node>
  <edge id='Graph16-e1'
      source='1'
      target='6' />
  <edge id='Graph16-e2'
      source='2'
      target='3' />
  <edge id='Graph16-e3'
      source='2'
      target='4' />
  <edge id='Graph16-e4'
      source='2'
      target='5' />
  <edge id='Graph16-e5'
      source='3'
      target='4' />
  <edge id='Graph16-e6'
      source='3'
      target='5' />
  <edge id='Graph16-e7'
      source='4'
      target='5' />
  <edge id='Graph16-e8'
      source='5'
      target='6' />
 </graph>
 <graph id='Graph17'
     edgedefault='undirected'>
  <node id='1'>
   <data key='nodeKey1'>List[-0.8660254037844389`, 0.5000000000000008`]</data>
  </node>
  <node id='2'>
   <data key='nodeKey1'>List[-0.8660254037844384`, -0.4999999999999994`]</data>
  </node>
  <node id='3'>
   <data key='nodeKey1'>List[3.8285686989269494`*^-16, -1.`]</data>
  </node>
  <node id='4'>
   <data key='nodeKey1'>List[0.8660254037844389`, -0.5000000000000012`]</data>
  </node>
  <node id='5'>
   <data key='nodeKey1'>List[0.8660254037844386`, 0.4999999999999993`]</data>
  </node>
  <node id='6'>
   <data key='nodeKey1'>List[1.8369701987210297`*^-16, 1.`]</data>
  </node>
  <edge id='Graph17-e1'
      source='1'
      target='6' />
  <edge id='Graph17-e2'
      source='2'
      target='4' />
  <edge id='Graph17-e3'
      source='2'
      target='5' />
  <edge id='Graph17-e4'
      source='3'
      target='4' />
  <edge id='Graph17-e5'
      source='3'
      target='5' />
  <edge id='Graph17-e6'
      source='3'
      target='6' />
  <edge id='Graph17-e7'
      source='4'
      target='5' />
  <edge id='Graph17-e8'
      source='5'
      target='6' />
 </graph>
 <graph id='Graph18'
     edgedefault='undirected'>
  <node id='1'>
   <data key='nodeKey1'>List[-0.8660254037844389`, 0.5000000000000008`]</data>
  </node>
  <node id='2'>
   <data key='nodeKey1'>List[-0.8660254037844384`, -0.4999999999999994`]</data>
  </node>
  <node id='3'>
   <data key='nodeKey1'>List[3.8285686989269494`*^-16, -1.`]</data>
  </node>
  <node id='4'>
   <data key='nodeKey1'>List[0.8660254037844389`, -0.5000000000000012`]</data>
  </node>
  <node id='5'>
   <data key='nodeKey1'>List[0.8660254037844386`, 0.4999999999999993`]</data>
  </node>
  <node id='6'>
   <data key='nodeKey1'>List[1.8369701987210297`*^-16, 1.`]</data>
  </node>
  <edge id='Graph18-e1'
      source='1'
      target='6' />
  <edge id='Graph18-e2'
      source='2'
      target='5' />
  <edge id='Graph18-e3'
      source='3'
      target='4' />
  <edge id='Graph18-e4'
      source='3'
      target='5' />
  <edge id='Graph18-e5'
      source='3'
      target='6' />
  <edge id='Graph18-e6'
      source='4'
      target='5' />
  <edge id='Graph18-e7'
      source='4'
      target='6' />
  <edge id='Graph18-e8'
      source='5'
      target='6' />
 </graph>
 <graph id='Graph19'
     edgedefault='undirected'>
  <node id='1'>
   <data key='nodeKey1'>List[-0.8660254037844389`, 0.5000000000000008`]</data>
  </node>
  <node id='2'>
   <data key='nodeKey1'>List[-0.8660254037844384`, -0.4999999999999994`]</data>
  </node>
  <node id='3'>
   <data key='nodeKey1'>List[3.8285686989269494`*^-16, -1.`]</data>
  </node>
  <node id='4'>
   <data key='nodeKey1'>List[0.8660254037844389`, -0.5000000000000012`]</data>
  </node>
  <node id='5'>
   <data key='nodeKey1'>List[0.8660254037844386`, 0.4999999999999993`]</data>
  </node>
  <node id='6'>
   <data key='nodeKey1'>List[1.8369701987210297`*^-16, 1.`]</data>
  </node>
  <edge id='Graph19-e1'
      source='1'
      target='4' />
  <edge id='Graph19-e2'
      source='1'
      target='5' />
  <edge id='Graph19-e3'
      source='1'
      target='6' />
  <edge id='Graph19-e4'
      source='2'
      target='3' />
  <edge id='Graph19-e5'
      source='2'
      target='5' />
  <edge id='Graph19-e6'
      source='2'
      target='6' />
  <edge id='Graph19-e7'
      source='3'
      target='4' />
  <edge id='Graph19-e8'
      source='3'
      target='6' />
  <edge id='Graph19-e9'
      source='4'
      target='5' />
 </graph>
 <graph id='Graph20'
     edgedefault='undirected'>
  <node id='1'>
   <data key='nodeKey1'>List[-0.8660254037844389`, 0.5000000000000008`]</data>
  </node>
  <node id='2'>
   <data key='nodeKey1'>List[-0.8660254037844384`, -0.4999999999999994`]</data>
  </node>
  <node id='3'>
   <data key='nodeKey1'>List[3.8285686989269494`*^-16, -1.`]</data>
  </node>
  <node id='4'>
   <data key='nodeKey1'>List[0.8660254037844389`, -0.5000000000000012`]</data>
  </node>
  <node id='5'>
   <data key='nodeKey1'>List[0.8660254037844386`, 0.4999999999999993`]</data>
  </node>
  <node id='6'>
   <data key='nodeKey1'>List[1.8369701987210297`*^-16, 1.`]</data>
  </node>
  <edge id='Graph20-e1'
      source='1'
      target='5' />
  <edge id='Graph20-e2'
      source='1'
      target='6' />
  <edge id='Graph20-e3'
      source='2'
      target='3' />
  <edge id='Graph20-e4'
      source='2'
      target='4' />
  <edge id='Graph20-e5'
      source='2'
      target='6' />
  <edge id='Graph20-e6'
      source='3'
      target='4' />
  <edge id='Graph20-e7'
      source='3'
      target='5' />
  <edge id='Graph20-e8'
      source='4'
      target='5' />
  <edge id='Graph20-e9'
      source='4'
      target='6' />
 </graph>
 <graph id='Graph21'
     edgedefault='undirected'>
  <node id='1'>
   <data key='nodeKey1'>List[-0.8660254037844389`, 0.5000000000000008`]</data>
  </node>
  <node id='2'>
   <data key='nodeKey1'>List[-0.8660254037844384`, -0.4999999999999994`]</data>
  </node>
  <node id='3'>
   <data key='nodeKey1'>List[3.8285686989269494`*^-16, -1.`]</data>
  </node>
  <node id='4'>
   <data key='nodeKey1'>List[0.8660254037844389`, -0.5000000000000012`]</data>
  </node>
  <node id='5'>
   <data key='nodeKey1'>List[0.8660254037844386`, 0.4999999999999993`]</data>
  </node>
  <node id='6'>
   <data key='nodeKey1'>List[1.8369701987210297`*^-16, 1.`]</data>
  </node>
  <edge id='Graph21-e1'
      source='1'
      target='5' />
  <edge id='Graph21-e2'
      source='1'
      target='6' />
  <edge id='Graph21-e3'
      source='2'
      target='3' />
  <edge id='Graph21-e4'
      source='2'
      target='4' />
  <edge id='Graph21-e5'
      source='2'
      target='6' />
  <edge id='Graph21-e6'
      source='3'
      target='4' />
  <edge id='Graph21-e7'
      source='3'
      target='6' />
  <edge id='Graph21-e8'
      source='4'
      target='5' />
  <edge id='Graph21-e9'
      source='4'
      target='6' />
 </graph>
 <graph id='Graph22'
     edgedefault='undirected'>
  <node id='1'>
   <data key='nodeKey1'>List[-0.8660254037844389`, 0.5000000000000008`]</data>
  </node>
  <node id='2'>
   <data key='nodeKey1'>List[-0.8660254037844384`, -0.4999999999999994`]</data>
  </node>
  <node id='3'>
   <data key='nodeKey1'>List[3.8285686989269494`*^-16, -1.`]</data>
  </node>
  <node id='4'>
   <data key='nodeKey1'>List[0.8660254037844389`, -0.5000000000000012`]</data>
  </node>
  <node id='5'>
   <data key='nodeKey1'>List[0.8660254037844386`, 0.4999999999999993`]</data>
  </node>
  <node id='6'>
   <data key='nodeKey1'>List[1.8369701987210297`*^-16, 1.`]</data>
  </node>
  <edge id='Graph22-e1'
      source='1'
      target='5' />
  <edge id='Graph22-e2'
      source='1'
      target='6' />
  <edge id='Graph22-e3'
      source='2'
      target='3' />
  <edge id='Graph22-e4'
      source='2'
      target='4' />
  <edge id='Graph22-e5'
      source='2'
      target='6' />
  <edge id='Graph22-e6'
      source='3'
      target='4' />
  <edge id='Graph22-e7'
      source='3'
      target='6' />
  <edge id='Graph22-e8'
      source='4'
      target='5' />
  <edge id='Graph22-e9'
      source='5'
      target='6' />
 </graph>
 <graph id='Graph23'
     edgedefault='undirected'>
  <node id='1'>
   <data key='nodeKey1'>List[-0.8660254037844389`, 0.5000000000000008`]</data>
  </node>
  <node id='2'>
   <data key='nodeKey1'>List[-0.8660254037844384`, -0.4999999999999994`]</data>
  </node>
  <node id='3'>
   <data key='nodeKey1'>List[3.8285686989269494`*^-16, -1.`]</data>
  </node>
  <node id='4'>
   <data key='nodeKey1'>List[0.8660254037844389`, -0.5000000000000012`]</data>
  </node>
  <node id='5'>
   <data key='nodeKey1'>List[0.8660254037844386`, 0.4999999999999993`]</data>
  </node>
  <node id='6'>
   <data key='nodeKey1'>List[1.8369701987210297`*^-16, 1.`]</data>
  </node>
  <edge id='Graph23-e1'
      source='1'
      target='5' />
  <edge id='Graph23-e2'
      source='1'
      target='6' />
  <edge id='Graph23-e3'
      source='2'
      target='3' />
  <edge id='Graph23-e4'
      source='2'
      target='4' />
  <edge id='Graph23-e5'
      source='2'
      target='6' />
  <edge id='Graph23-e6'
      source='3'
      target='4' />
  <edge id='Graph23-e7'
      source='3'
      target='6' />
  <edge id='Graph23-e8'
      source='4'
      target='6' />
  <edge id='Graph23-e9'
      source='5'
      target='6' />
 </graph>
 <graph id='Graph24'
     edgedefault='undirected'>
  <node id='1'>
   <data key='nodeKey1'>List[-0.8660254037844389`, 0.5000000000000008`]</data>
  </node>
  <node id='2'>
   <data key='nodeKey1'>List[-0.8660254037844384`, -0.4999999999999994`]</data>
  </node>
  <node id='3'>
   <data key='nodeKey1'>List[3.8285686989269494`*^-16, -1.`]</data>
  </node>
  <node id='4'>
   <data key='nodeKey1'>List[0.8660254037844389`, -0.5000000000000012`]</data>
  </node>
  <node id='5'>
   <data key='nodeKey1'>List[0.8660254037844386`, 0.4999999999999993`]</data>
  </node>
  <node id='6'>
   <data key='nodeKey1'>List[1.8369701987210297`*^-16, 1.`]</data>
  </node>
  <edge id='Graph24-e1'
      source='1'
      target='5' />
  <edge id='Graph24-e2'
      source='1'
      target='6' />
  <edge id='Graph24-e3'
      source='2'
      target='4' />
  <edge id='Graph24-e4'
      source='2'
      target='6' />
  <edge id='Graph24-e5'
      source='3'
      target='4' />
  <edge id='Graph24-e6'
      source='3'
      target='5' />
  <edge id='Graph24-e7'
      source='4'
      target='5' />
  <edge id='Graph24-e8'
      source='4'
      target='6' />
  <edge id='Graph24-e9'
      source='5'
      target='6' />
 </graph>
 <graph id='Graph25'
     edgedefault='undirected'>
  <node id='1'>
   <data key='nodeKey1'>List[-0.8660254037844389`, 0.5000000000000008`]</data>
  </node>
  <node id='2'>
   <data key='nodeKey1'>List[-0.8660254037844384`, -0.4999999999999994`]</data>
  </node>
  <node id='3'>
   <data key='nodeKey1'>List[3.8285686989269494`*^-16, -1.`]</data>
  </node>
  <node id='4'>
   <data key='nodeKey1'>List[0.8660254037844389`, -0.5000000000000012`]</data>
  </node>
  <node id='5'>
   <data key='nodeKey1'>List[0.8660254037844386`, 0.4999999999999993`]</data>
  </node>
  <node id='6'>
   <data key='nodeKey1'>List[1.8369701987210297`*^-16, 1.`]</data>
  </node>
  <edge id='Graph25-e1'
      source='1'
      target='6' />
  <edge id='Graph25-e2'
      source='2'
      target='3' />
  <edge id='Graph25-e3'
      source='2'
      target='4' />
  <edge id='Graph25-e4'
      source='2'
      target='5' />
  <edge id='Graph25-e5'
      source='3'
      target='4' />
  <edge id='Graph25-e6'
      source='3'
      target='5' />
  <edge id='Graph25-e7'
      source='4'
      target='5' />
  <edge id='Graph25-e8'
      source='4'
      target='6' />
  <edge id='Graph25-e9'
      source='5'
      target='6' />
 </graph>
 <graph id='Graph26'
     edgedefault='undirected'>
  <node id='1'>
   <data key='nodeKey1'>List[-0.8660254037844389`, 0.5000000000000008`]</data>
  </node>
  <node id='2'>
   <data key='nodeKey1'>List[-0.8660254037844384`, -0.4999999999999994`]</data>
  </node>
  <node id='3'>
   <data key='nodeKey1'>List[3.8285686989269494`*^-16, -1.`]</data>
  </node>
  <node id='4'>
   <data key='nodeKey1'>List[0.8660254037844389`, -0.5000000000000012`]</data>
  </node>
  <node id='5'>
   <data key='nodeKey1'>List[0.8660254037844386`, 0.4999999999999993`]</data>
  </node>
  <node id='6'>
   <data key='nodeKey1'>List[1.8369701987210297`*^-16, 1.`]</data>
  </node>
  <edge id='Graph26-e1'
      source='1'
      target='6' />
  <edge id='Graph26-e2'
      source='2'
      target='4' />
  <edge id='Graph26-e3'
      source='2'
      target='5' />
  <edge id='Graph26-e4'
      source='3'
      target='4' />
  <edge id='Graph26-e5'
      source='3'
      target='5' />
  <edge id='Graph26-e6'
      source='3'
      target='6' />
  <edge id='Graph26-e7'
      source='4'
      target='5' />
  <edge id='Graph26-e8'
      source='4'
      target='6' />
  <edge id='Graph26-e9'
      source='5'
      target='6' />
 </graph>
 <graph id='Graph27'
     edgedefault='undirected'>
  <node id='1'>
   <data key='nodeKey1'>List[-0.8660254037844389`, 0.5000000000000008`]</data>
  </node>
  <node id='2'>
   <data key='nodeKey1'>List[-0.8660254037844384`, -0.4999999999999994`]</data>
  </node>
  <node id='3'>
   <data key='nodeKey1'>List[3.8285686989269494`*^-16, -1.`]</data>
  </node>
  <node id='4'>
   <data key='nodeKey1'>List[0.8660254037844389`, -0.5000000000000012`]</data>
  </node>
  <node id='5'>
   <data key='nodeKey1'>List[0.8660254037844386`, 0.4999999999999993`]</data>
  </node>
  <node id='6'>
   <data key='nodeKey1'>List[1.8369701987210297`*^-16, 1.`]</data>
  </node>
  <edge id='Graph27-e1'
      source='1'
      target='4' />
  <edge id='Graph27-e2'
      source='1'
      target='5' />
  <edge id='Graph27-e3'
      source='1'
      target='6' />
  <edge id='Graph27-e4'
      source='2'
      target='3' />
  <edge id='Graph27-e5'
      source='2'
      target='5' />
  <edge id='Graph27-e6'
      source='2'
      target='6' />
  <edge id='Graph27-e7'
      source='3'
      target='5' />
  <edge id='Graph27-e8'
      source='3'
      target='6' />
  <edge id='Graph27-e9'
      source='4'
      target='5' />
  <edge id='Graph27-e10'
      source='4'
      target='6' />
 </graph>
 <graph id='Graph28'
     edgedefault='undirected'>
  <node id='1'>
   <data key='nodeKey1'>List[-0.8660254037844389`, 0.5000000000000008`]</data>
  </node>
  <node id='2'>
   <data key='nodeKey1'>List[-0.8660254037844384`, -0.4999999999999994`]</data>
  </node>
  <node id='3'>
   <data key='nodeKey1'>List[3.8285686989269494`*^-16, -1.`]</data>
  </node>
  <node id='4'>
   <data key='nodeKey1'>List[0.8660254037844389`, -0.5000000000000012`]</data>
  </node>
  <node id='5'>
   <data key='nodeKey1'>List[0.8660254037844386`, 0.4999999999999993`]</data>
  </node>
  <node id='6'>
   <data key='nodeKey1'>List[1.8369701987210297`*^-16, 1.`]</data>
  </node>
  <edge id='Graph28-e1'
      source='1'
      target='5' />
  <edge id='Graph28-e2'
      source='1'
      target='6' />
  <edge id='Graph28-e3'
      source='2'
      target='3' />
  <edge id='Graph28-e4'
      source='2'
      target='4' />
  <edge id='Graph28-e5'
      source='2'
      target='6' />
  <edge id='Graph28-e6'
      source='3'
      target='4' />
  <edge id='Graph28-e7'
      source='3'
      target='5' />
  <edge id='Graph28-e8'
      source='3'
      target='6' />
  <edge id='Graph28-e9'
      source='4'
      target='5' />
  <edge id='Graph28-e10'
      source='4'
      target='6' />
 </graph>
 <graph id='Graph29'
     edgedefault='undirected'>
  <node id='1'>
   <data key='nodeKey1'>List[-0.8660254037844389`, 0.5000000000000008`]</data>
  </node>
  <node id='2'>
   <data key='nodeKey1'>List[-0.8660254037844384`, -0.4999999999999994`]</data>
  </node>
  <node id='3'>
   <data key='nodeKey1'>List[3.8285686989269494`*^-16, -1.`]</data>
  </node>
  <node id='4'>
   <data key='nodeKey1'>List[0.8660254037844389`, -0.5000000000000012`]</data>
  </node>
  <node id='5'>
   <data key='nodeKey1'>List[0.8660254037844386`, 0.4999999999999993`]</data>
  </node>
  <node id='6'>
   <data key='nodeKey1'>List[1.8369701987210297`*^-16, 1.`]</data>
  </node>
  <edge id='Graph29-e1'
      source='1'
      target='5' />
  <edge id='Graph29-e2'
      source='1'
      target='6' />
  <edge id='Graph29-e3'
      source='2'
      target='3' />
  <edge id='Graph29-e4'
      source='2'
      target='4' />
  <edge id='Graph29-e5'
      source='2'
      target='6' />
  <edge id='Graph29-e6'
      source='3'
      target='4' />
  <edge id='Graph29-e7'
      source='3'
      target='5' />
  <edge id='Graph29-e8'
      source='4'
      target='5' />
  <edge id='Graph29-e9'
      source='4'
      target='6' />
  <edge id='Graph29-e10'
      source='5'
      target='6' />
 </graph>
 <graph id='Graph30'
     edgedefault='undirected'>
  <node id='1'>
   <data key='nodeKey1'>List[-0.8660254037844389`, 0.5000000000000008`]</data>
  </node>
  <node id='2'>
   <data key='nodeKey1'>List[-0.8660254037844384`, -0.4999999999999994`]</data>
  </node>
  <node id='3'>
   <data key='nodeKey1'>List[3.8285686989269494`*^-16, -1.`]</data>
  </node>
  <node id='4'>
   <data key='nodeKey1'>List[0.8660254037844389`, -0.5000000000000012`]</data>
  </node>
  <node id='5'>
   <data key='nodeKey1'>List[0.8660254037844386`, 0.4999999999999993`]</data>
  </node>
  <node id='6'>
   <data key='nodeKey1'>List[1.8369701987210297`*^-16, 1.`]</data>
  </node>
  <edge id='Graph30-e1'
      source='1'
      target='5' />
  <edge id='Graph30-e2'
      source='1'
      target='6' />
  <edge id='Graph30-e3'
      source='2'
      target='3' />
  <edge id='Graph30-e4'
      source='2'
      target='4' />
  <edge id='Graph30-e5'
      source='2'
      target='6' />
  <edge id='Graph30-e6'
      source='3'
      target='4' />
  <edge id='Graph30-e7'
      source='3'
      target='6' />
  <edge id='Graph30-e8'
      source='4'
      target='5' />
  <edge id='Graph30-e9'
      source='4'
      target='6' />
  <edge id='Graph30-e10'
      source='5'
      target='6' />
 </graph>
 <graph id='Graph31'
     edgedefault='undirected'>
  <node id='1'>
   <data key='nodeKey1'>List[-0.8660254037844389`, 0.5000000000000008`]</data>
  </node>
  <node id='2'>
   <data key='nodeKey1'>List[-0.8660254037844384`, -0.4999999999999994`]</data>
  </node>
  <node id='3'>
   <data key='nodeKey1'>List[3.8285686989269494`*^-16, -1.`]</data>
  </node>
  <node id='4'>
   <data key='nodeKey1'>List[0.8660254037844389`, -0.5000000000000012`]</data>
  </node>
  <node id='5'>
   <data key='nodeKey1'>List[0.8660254037844386`, 0.4999999999999993`]</data>
  </node>
  <node id='6'>
   <data key='nodeKey1'>List[1.8369701987210297`*^-16, 1.`]</data>
  </node>
  <edge id='Graph31-e1'
      source='1'
      target='5' />
  <edge id='Graph31-e2'
      source='1'
      target='6' />
  <edge id='Graph31-e3'
      source='2'
      target='3' />
  <edge id='Graph31-e4'
      source='2'
      target='4' />
  <edge id='Graph31-e5'
      source='3'
      target='4' />
  <edge id='Graph31-e6'
      source='3'
      target='5' />
  <edge id='Graph31-e7'
      source='3'
      target='6' />
  <edge id='Graph31-e8'
      source='4'
      target='5' />
  <edge id='Graph31-e9'
      source='4'
      target='6' />
  <edge id='Graph31-e10'
      source='5'
      target='6' />
 </graph>
 <graph id='Graph32'
     edgedefault='undirected'>
  <node id='1'>
   <data key='nodeKey1'>List[-0.8660254037844389`, 0.5000000000000008`]</data>
  </node>
  <node id='2'>
   <data key='nodeKey1'>List[-0.8660254037844384`, -0.4999999999999994`]</data>
  </node>
  <node id='3'>
   <data key='nodeKey1'>List[3.8285686989269494`*^-16, -1.`]</data>
  </node>
  <node id='4'>
   <data key='nodeKey1'>List[0.8660254037844389`, -0.5000000000000012`]</data>
  </node>
  <node id='5'>
   <data key='nodeKey1'>List[0.8660254037844386`, 0.4999999999999993`]</data>
  </node>
  <node id='6'>
   <data key='nodeKey1'>List[1.8369701987210297`*^-16, 1.`]</data>
  </node>
  <edge id='Graph32-e1'
      source='1'
      target='6' />
  <edge id='Graph32-e2'
      source='2'
      target='3' />
  <edge id='Graph32-e3'
      source='2'
      target='4' />
  <edge id='Graph32-e4'
      source='2'
      target='5' />
  <edge id='Graph32-e5'
      source='3'
      target='4' />
  <edge id='Graph32-e6'
      source='3'
      target='5' />
  <edge id='Graph32-e7'
      source='3'
      target='6' />
  <edge id='Graph32-e8'
      source='4'
      target='5' />
  <edge id='Graph32-e9'
      source='4'
      target='6' />
  <edge id='Graph32-e10'
      source='5'
      target='6' />
 </graph>
 <graph id='Graph33'
     edgedefault='undirected'>
  <node id='1'>
   <data key='nodeKey1'>List[-0.8660254037844389`, 0.5000000000000008`]</data>
  </node>
  <node id='2'>
   <data key='nodeKey1'>List[-0.8660254037844384`, -0.4999999999999994`]</data>
  </node>
  <node id='3'>
   <data key='nodeKey1'>List[3.8285686989269494`*^-16, -1.`]</data>
  </node>
  <node id='4'>
   <data key='nodeKey1'>List[0.8660254037844389`, -0.5000000000000012`]</data>
  </node>
  <node id='5'>
   <data key='nodeKey1'>List[0.8660254037844386`, 0.4999999999999993`]</data>
  </node>
  <node id='6'>
   <data key='nodeKey1'>List[1.8369701987210297`*^-16, 1.`]</data>
  </node>
  <edge id='Graph33-e1'
      source='1'
      target='4' />
  <edge id='Graph33-e2'
      source='1'
      target='5' />
  <edge id='Graph33-e3'
      source='1'
      target='6' />
  <edge id='Graph33-e4'
      source='2'
      target='3' />
  <edge id='Graph33-e5'
      source='2'
      target='4' />
  <edge id='Graph33-e6'
      source='2'
      target='5' />
  <edge id='Graph33-e7'
      source='2'
      target='6' />
  <edge id='Graph33-e8'
      source='3'
      target='4' />
  <edge id='Graph33-e9'
      source='3'
      target='5' />
  <edge id='Graph33-e10'
      source='3'
      target='6' />
  <edge id='Graph33-e11'
      source='5'
      target='6' />
 </graph>
 <graph id='Graph34'
     edgedefault='undirected'>
  <node id='1'>
   <data key='nodeKey1'>List[-0.8660254037844389`, 0.5000000000000008`]</data>
  </node>
  <node id='2'>
   <data key='nodeKey1'>List[-0.8660254037844384`, -0.4999999999999994`]</data>
  </node>
  <node id='3'>
   <data key='nodeKey1'>List[3.8285686989269494`*^-16, -1.`]</data>
  </node>
  <node id='4'>
   <data key='nodeKey1'>List[0.8660254037844389`, -0.5000000000000012`]</data>
  </node>
  <node id='5'>
   <data key='nodeKey1'>List[0.8660254037844386`, 0.4999999999999993`]</data>
  </node>
  <node id='6'>
   <data key='nodeKey1'>List[1.8369701987210297`*^-16, 1.`]</data>
  </node>
  <edge id='Graph34-e1'
      source='1'
      target='4' />
  <edge id='Graph34-e2'
      source='1'
      target='5' />
  <edge id='Graph34-e3'
      source='1'
      target='6' />
  <edge id='Graph34-e4'
      source='2'
      target='3' />
  <edge id='Graph34-e5'
      source='2'
      target='5' />
  <edge id='Graph34-e6'
      source='2'
      target='6' />
  <edge id='Graph34-e7'
      source='3'
      target='4' />
  <edge id='Graph34-e8'
      source='3'
      target='6' />
  <edge id='Graph34-e9'
      source='4'
      target='5' />
  <edge id='Graph34-e10'
      source='4'
      target='6' />
  <edge id='Graph34-e11'
      source='5'
      target='6' />
 </graph>
 <graph id='Graph35'
     edgedefault='undirected'>
  <node id='1'>
   <data key='nodeKey1'>List[-0.8660254037844389`, 0.5000000000000008`]</data>
  </node>
  <node id='2'>
   <data key='nodeKey1'>List[-0.8660254037844384`, -0.4999999999999994`]</data>
  </node>
  <node id='3'>
   <data key='nodeKey1'>List[3.8285686989269494`*^-16, -1.`]</data>
  </node>
  <node id='4'>
   <data key='nodeKey1'>List[0.8660254037844389`, -0.5000000000000012`]</data>
  </node>
  <node id='5'>
   <data key='nodeKey1'>List[0.8660254037844386`, 0.4999999999999993`]</data>
  </node>
  <node id='6'>
   <data key='nodeKey1'>List[1.8369701987210297`*^-16, 1.`]</data>
  </node>
  <edge id='Graph35-e1'
      source='1'
      target='4' />
  <edge id='Graph35-e2'
      source='1'
      target='5' />
  <edge id='Graph35-e3'
      source='1'
      target='6' />
  <edge id='Graph35-e4'
      source='2'
      target='3' />
  <edge id='Graph35-e5'
      source='2'
      target='5' />
  <edge id='Graph35-e6'
      source='2'
      target='6' />
  <edge id='Graph35-e7'
      source='3'
      target='5' />
  <edge id='Graph35-e8'
      source='3'
      target='6' />
  <edge id='Graph35-e9'
      source='4'
      target='5' />
  <edge id='Graph35-e10'
      source='4'
      target='6' />
  <edge id='Graph35-e11'
      source='5'
      target='6' />
 </graph>
 <graph id='Graph36'
     edgedefault='undirected'>
  <node id='1'>
   <data key='nodeKey1'>List[-0.8660254037844389`, 0.5000000000000008`]</data>
  </node>
  <node id='2'>
   <data key='nodeKey1'>List[-0.8660254037844384`, -0.4999999999999994`]</data>
  </node>
  <node id='3'>
   <data key='nodeKey1'>List[3.8285686989269494`*^-16, -1.`]</data>
  </node>
  <node id='4'>
   <data key='nodeKey1'>List[0.8660254037844389`, -0.5000000000000012`]</data>
  </node>
  <node id='5'>
   <data key='nodeKey1'>List[0.8660254037844386`, 0.4999999999999993`]</data>
  </node>
  <node id='6'>
   <data key='nodeKey1'>List[1.8369701987210297`*^-16, 1.`]</data>
  </node>
  <edge id='Graph36-e1'
      source='1'
      target='5' />
  <edge id='Graph36-e2'
      source='1'
      target='6' />
  <edge id='Graph36-e3'
      source='2'
      target='3' />
  <edge id='Graph36-e4'
      source='2'
      target='4' />
  <edge id='Graph36-e5'
      source='2'
      target='5' />
  <edge id='Graph36-e6'
      source='2'
      target='6' />
  <edge id='Graph36-e7'
      source='3'
      target='4' />
  <edge id='Graph36-e8'
      source='3'
      target='5' />
  <edge id='Graph36-e9'
      source='3'
      target='6' />
  <edge id='Graph36-e10'
      source='4'
      target='5' />
  <edge id='Graph36-e11'
      source='4'
      target='6' />
 </graph>
 <graph id='Graph37'
     edgedefault='undirected'>
  <node id='1'>
   <data key='nodeKey1'>List[-0.8660254037844389`, 0.5000000000000008`]</data>
  </node>
  <node id='2'>
   <data key='nodeKey1'>List[-0.8660254037844384`, -0.4999999999999994`]</data>
  </node>
  <node id='3'>
   <data key='nodeKey1'>List[3.8285686989269494`*^-16, -1.`]</data>
  </node>
  <node id='4'>
   <data key='nodeKey1'>List[0.8660254037844389`, -0.5000000000000012`]</data>
  </node>
  <node id='5'>
   <data key='nodeKey1'>List[0.8660254037844386`, 0.4999999999999993`]</data>
  </node>
  <node id='6'>
   <data key='nodeKey1'>List[1.8369701987210297`*^-16, 1.`]</data>
  </node>
  <edge id='Graph37-e1'
      source='1'
      target='5' />
  <edge id='Graph37-e2'
      source='1'
      target='6' />
  <edge id='Graph37-e3'
      source='2'
      target='3' />
  <edge id='Graph37-e4'
      source='2'
      target='4' />
  <edge id='Graph37-e5'
      source='2'
      target='6' />
  <edge id='Graph37-e6'
      source='3'
      target='4' />
  <edge id='Graph37-e7'
      source='3'
      target='5' />
  <edge id='Graph37-e8'
      source='3'
      target='6' />
  <edge id='Graph37-e9'
      source='4'
      target='5' />
  <edge id='Graph37-e10'
      source='4'
      target='6' />
  <edge id='Graph37-e11'
      source='5'
      target='6' />
 </graph>
 <graph id='Graph38'
     edgedefault='undirected'>
  <node id='1'>
   <data key='nodeKey1'>List[-0.8660254037844389`, 0.5000000000000008`]</data>
  </node>
  <node id='2'>
   <data key='nodeKey1'>List[-0.8660254037844384`, -0.4999999999999994`]</data>
  </node>
  <node id='3'>
   <data key='nodeKey1'>List[3.8285686989269494`*^-16, -1.`]</data>
  </node>
  <node id='4'>
   <data key='nodeKey1'>List[0.8660254037844389`, -0.5000000000000012`]</data>
  </node>
  <node id='5'>
   <data key='nodeKey1'>List[0.8660254037844386`, 0.4999999999999993`]</data>
  </node>
  <node id='6'>
   <data key='nodeKey1'>List[1.8369701987210297`*^-16, 1.`]</data>
  </node>
  <edge id='Graph38-e1'
      source='1'
      target='6' />
  <edge id='Graph38-e2'
      source='2'
      target='3' />
  <edge id='Graph38-e3'
      source='2'
      target='4' />
  <edge id='Graph38-e4'
      source='2'
      target='5' />
  <edge id='Graph38-e5'
      source='2'
      target='6' />
  <edge id='Graph38-e6'
      source='3'
      target='4' />
  <edge id='Graph38-e7'
      source='3'
      target='5' />
  <edge id='Graph38-e8'
      source='3'
      target='6' />
  <edge id='Graph38-e9'
      source='4'
      target='5' />
  <edge id='Graph38-e10'
      source='4'
      target='6' />
  <edge id='Graph38-e11'
      source='5'
      target='6' />
 </graph>
 <graph id='Graph39'
     edgedefault='undirected'>
  <node id='1'>
   <data key='nodeKey1'>List[-0.8660254037844389`, 0.5000000000000008`]</data>
  </node>
  <node id='2'>
   <data key='nodeKey1'>List[-0.8660254037844384`, -0.4999999999999994`]</data>
  </node>
  <node id='3'>
   <data key='nodeKey1'>List[3.8285686989269494`*^-16, -1.`]</data>
  </node>
  <node id='4'>
   <data key='nodeKey1'>List[0.8660254037844389`, -0.5000000000000012`]</data>
  </node>
  <node id='5'>
   <data key='nodeKey1'>List[0.8660254037844386`, 0.4999999999999993`]</data>
  </node>
  <node id='6'>
   <data key='nodeKey1'>List[1.8369701987210297`*^-16, 1.`]</data>
  </node>
  <edge id='Graph39-e1'
      source='1'
      target='3' />
  <edge id='Graph39-e2'
      source='1'
      target='4' />
  <edge id='Graph39-e3'
      source='1'
      target='5' />
  <edge id='Graph39-e4'
      source='1'
      target='6' />
  <edge id='Graph39-e5'
      source='2'
      target='3' />
  <edge id='Graph39-e6'
      source='2'
      target='4' />
  <edge id='Graph39-e7'
      source='2'
      target='5' />
  <edge id='Graph39-e8'
      source='2'
      target='6' />
  <edge id='Graph39-e9'
      source='3'
      target='5' />
  <edge id='Graph39-e10'
      source='3'
      target='6' />
  <edge id='Graph39-e11'
      source='4'
      target='5' />
  <edge id='Graph39-e12'
      source='4'
      target='6' />
 </graph>
 <graph id='Graph40'
     edgedefault='undirected'>
  <node id='1'>
   <data key='nodeKey1'>List[-0.8660254037844389`, 0.5000000000000008`]</data>
  </node>
  <node id='2'>
   <data key='nodeKey1'>List[-0.8660254037844384`, -0.4999999999999994`]</data>
  </node>
  <node id='3'>
   <data key='nodeKey1'>List[3.8285686989269494`*^-16, -1.`]</data>
  </node>
  <node id='4'>
   <data key='nodeKey1'>List[0.8660254037844389`, -0.5000000000000012`]</data>
  </node>
  <node id='5'>
   <data key='nodeKey1'>List[0.8660254037844386`, 0.4999999999999993`]</data>
  </node>
  <node id='6'>
   <data key='nodeKey1'>List[1.8369701987210297`*^-16, 1.`]</data>
  </node>
  <edge id='Graph40-e1'
      source='1'
      target='4' />
  <edge id='Graph40-e2'
      source='1'
      target='5' />
  <edge id='Graph40-e3'
      source='1'
      target='6' />
  <edge id='Graph40-e4'
      source='2'
      target='3' />
  <edge id='Graph40-e5'
      source='2'
      target='4' />
  <edge id='Graph40-e6'
      source='2'
      target='5' />
  <edge id='Graph40-e7'
      source='2'
      target='6' />
  <edge id='Graph40-e8'
      source='3'
      target='4' />
  <edge id='Graph40-e9'
      source='3'
      target='5' />
  <edge id='Graph40-e10'
      source='3'
      target='6' />
  <edge id='Graph40-e11'
      source='4'
      target='6' />
  <edge id='Graph40-e12'
      source='5'
      target='6' />
 </graph>
 <graph id='Graph41'
     edgedefault='undirected'>
  <node id='1'>
   <data key='nodeKey1'>List[-0.8660254037844389`, 0.5000000000000008`]</data>
  </node>
  <node id='2'>
   <data key='nodeKey1'>List[-0.8660254037844384`, -0.4999999999999994`]</data>
  </node>
  <node id='3'>
   <data key='nodeKey1'>List[3.8285686989269494`*^-16, -1.`]</data>
  </node>
  <node id='4'>
   <data key='nodeKey1'>List[0.8660254037844389`, -0.5000000000000012`]</data>
  </node>
  <node id='5'>
   <data key='nodeKey1'>List[0.8660254037844386`, 0.4999999999999993`]</data>
  </node>
  <node id='6'>
   <data key='nodeKey1'>List[1.8369701987210297`*^-16, 1.`]</data>
  </node>
  <edge id='Graph41-e1'
      source='1'
      target='4' />
  <edge id='Graph41-e2'
      source='1'
      target='5' />
  <edge id='Graph41-e3'
      source='1'
      target='6' />
  <edge id='Graph41-e4'
      source='2'
      target='3' />
  <edge id='Graph41-e5'
      source='2'
      target='5' />
  <edge id='Graph41-e6'
      source='2'
      target='6' />
  <edge id='Graph41-e7'
      source='3'
      target='4' />
  <edge id='Graph41-e8'
      source='3'
      target='5' />
  <edge id='Graph41-e9'
      source='3'
      target='6' />
  <edge id='Graph41-e10'
      source='4'
      target='5' />
  <edge id='Graph41-e11'
      source='4'
      target='6' />
  <edge id='Graph41-e12'
      source='5'
      target='6' />
 </graph>
 <graph id='Graph42'
     edgedefault='undirected'>
  <node id='1'>
   <data key='nodeKey1'>List[-0.8660254037844389`, 0.5000000000000008`]</data>
  </node>
  <node id='2'>
   <data key='nodeKey1'>List[-0.8660254037844384`, -0.4999999999999994`]</data>
  </node>
  <node id='3'>
   <data key='nodeKey1'>List[3.8285686989269494`*^-16, -1.`]</data>
  </node>
  <node id='4'>
   <data key='nodeKey1'>List[0.8660254037844389`, -0.5000000000000012`]</data>
  </node>
  <node id='5'>
   <data key='nodeKey1'>List[0.8660254037844386`, 0.4999999999999993`]</data>
  </node>
  <node id='6'>
   <data key='nodeKey1'>List[1.8369701987210297`*^-16, 1.`]</data>
  </node>
  <edge id='Graph42-e1'
      source='1'
      target='5' />
  <edge id='Graph42-e2'
      source='1'
      target='6' />
  <edge id='Graph42-e3'
      source='2'
      target='3' />
  <edge id='Graph42-e4'
      source='2'
      target='4' />
  <edge id='Graph42-e5'
      source='2'
      target='5' />
  <edge id='Graph42-e6'
      source='2'
      target='6' />
  <edge id='Graph42-e7'
      source='3'
      target='4' />
  <edge id='Graph42-e8'
      source='3'
      target='5' />
  <edge id='Graph42-e9'
      source='3'
      target='6' />
  <edge id='Graph42-e10'
      source='4'
      target='5' />
  <edge id='Graph42-e11'
      source='4'
      target='6' />
  <edge id='Graph42-e12'
      source='5'
      target='6' />
 </graph>
 <graph id='Graph43'
     edgedefault='undirected'>
  <node id='1'>
   <data key='nodeKey1'>List[-0.8660254037844389`, 0.5000000000000008`]</data>
  </node>
  <node id='2'>
   <data key='nodeKey1'>List[-0.8660254037844384`, -0.4999999999999994`]</data>
  </node>
  <node id='3'>
   <data key='nodeKey1'>List[3.8285686989269494`*^-16, -1.`]</data>
  </node>
  <node id='4'>
   <data key='nodeKey1'>List[0.8660254037844389`, -0.5000000000000012`]</data>
  </node>
  <node id='5'>
   <data key='nodeKey1'>List[0.8660254037844386`, 0.4999999999999993`]</data>
  </node>
  <node id='6'>
   <data key='nodeKey1'>List[1.8369701987210297`*^-16, 1.`]</data>
  </node>
  <edge id='Graph43-e1'
      source='1'
      target='3' />
  <edge id='Graph43-e2'
      source='1'
      target='4' />
  <edge id='Graph43-e3'
      source='1'
      target='5' />
  <edge id='Graph43-e4'
      source='1'
      target='6' />
  <edge id='Graph43-e5'
      source='2'
      target='3' />
  <edge id='Graph43-e6'
      source='2'
      target='4' />
  <edge id='Graph43-e7'
      source='2'
      target='5' />
  <edge id='Graph43-e8'
      source='2'
      target='6' />
  <edge id='Graph43-e9'
      source='3'
      target='5' />
  <edge id='Graph43-e10'
      source='3'
      target='6' />
  <edge id='Graph43-e11'
      source='4'
      target='5' />
  <edge id='Graph43-e12'
      source='4'
      target='6' />
  <edge id='Graph43-e13'
      source='5'
      target='6' />
 </graph>
 <graph id='Graph44'
     edgedefault='undirected'>
  <node id='1'>
   <data key='nodeKey1'>List[-0.8660254037844389`, 0.5000000000000008`]</data>
  </node>
  <node id='2'>
   <data key='nodeKey1'>List[-0.8660254037844384`, -0.4999999999999994`]</data>
  </node>
  <node id='3'>
   <data key='nodeKey1'>List[3.8285686989269494`*^-16, -1.`]</data>
  </node>
  <node id='4'>
   <data key='nodeKey1'>List[0.8660254037844389`, -0.5000000000000012`]</data>
  </node>
  <node id='5'>
   <data key='nodeKey1'>List[0.8660254037844386`, 0.4999999999999993`]</data>
  </node>
  <node id='6'>
   <data key='nodeKey1'>List[1.8369701987210297`*^-16, 1.`]</data>
  </node>
  <edge id='Graph44-e1'
      source='1'
      target='4' />
  <edge id='Graph44-e2'
      source='1'
      target='5' />
  <edge id='Graph44-e3'
      source='1'
      target='6' />
  <edge id='Graph44-e4'
      source='2'
      target='3' />
  <edge id='Graph44-e5'
      source='2'
      target='4' />
  <edge id='Graph44-e6'
      source='2'
      target='5' />
  <edge id='Graph44-e7'
      source='2'
      target='6' />
  <edge id='Graph44-e8'
      source='3'
      target='4' />
  <edge id='Graph44-e9'
      source='3'
      target='5' />
  <edge id='Graph44-e10'
      source='3'
      target='6' />
  <edge id='Graph44-e11'
      source='4'
      target='5' />
  <edge id='Graph44-e12'
      source='4'
      target='6' />
  <edge id='Graph44-e13'
      source='5'
      target='6' />
 </graph>
 <graph id='Graph45'
     edgedefault='undirected'>
  <node id='1'>
   <data key='nodeKey1'>List[-0.8660254037844389`, 0.5000000000000008`]</data>
  </node>
  <node id='2'>
   <data key='nodeKey1'>List[-0.8660254037844384`, -0.4999999999999994`]</data>
  </node>
  <node id='3'>
   <data key='nodeKey1'>List[3.8285686989269494`*^-16, -1.`]</data>
  </node>
  <node id='4'>
   <data key='nodeKey1'>List[0.8660254037844389`, -0.5000000000000012`]</data>
  </node>
  <node id='5'>
   <data key='nodeKey1'>List[0.8660254037844386`, 0.4999999999999993`]</data>
  </node>
  <node id='6'>
   <data key='nodeKey1'>List[1.8369701987210297`*^-16, 1.`]</data>
  </node>
  <edge id='Graph45-e1'
      source='1'
      target='3' />
  <edge id='Graph45-e2'
      source='1'
      target='4' />
  <edge id='Graph45-e3'
      source='1'
      target='5' />
  <edge id='Graph45-e4'
      source='1'
      target='6' />
  <edge id='Graph45-e5'
      source='2'
      target='3' />
  <edge id='Graph45-e6'
      source='2'
      target='4' />
  <edge id='Graph45-e7'
      source='2'
      target='5' />
  <edge id='Graph45-e8'
      source='2'
      target='6' />
  <edge id='Graph45-e9'
      source='3'
      target='4' />
  <edge id='Graph45-e10'
      source='3'
      target='5' />
  <edge id='Graph45-e11'
      source='3'
      target='6' />
  <edge id='Graph45-e12'
      source='4'
      target='5' />
  <edge id='Graph45-e13'
      source='4'
      target='6' />
  <edge id='Graph45-e14'
      source='5'
      target='6' />
 </graph>
 <graph id='Graph46'
     edgedefault='undirected'>
  <node id='1'>
   <data key='nodeKey1'>List[-0.8660254037844389`, 0.5000000000000008`]</data>
  </node>
  <node id='2'>
   <data key='nodeKey1'>List[-0.8660254037844384`, -0.4999999999999994`]</data>
  </node>
  <node id='3'>
   <data key='nodeKey1'>List[3.8285686989269494`*^-16, -1.`]</data>
  </node>
  <node id='4'>
   <data key='nodeKey1'>List[0.8660254037844389`, -0.5000000000000012`]</data>
  </node>
  <node id='5'>
   <data key='nodeKey1'>List[0.8660254037844386`, 0.4999999999999993`]</data>
  </node>
  <node id='6'>
   <data key='nodeKey1'>List[1.8369701987210297`*^-16, 1.`]</data>
  </node>
  <edge id='Graph46-e1'
      source='1'
      target='2' />
  <edge id='Graph46-e2'
      source='1'
      target='3' />
  <edge id='Graph46-e3'
      source='1'
      target='4' />
  <edge id='Graph46-e4'
      source='1'
      target='5' />
  <edge id='Graph46-e5'
      source='1'
      target='6' />
  <edge id='Graph46-e6'
      source='2'
      target='3' />
  <edge id='Graph46-e7'
      source='2'
      target='4' />
  <edge id='Graph46-e8'
      source='2'
      target='5' />
  <edge id='Graph46-e9'
      source='2'
      target='6' />
  <edge id='Graph46-e10'
      source='3'
      target='4' />
  <edge id='Graph46-e11'
      source='3'
      target='5' />
  <edge id='Graph46-e12'
      source='3'
      target='6' />
  <edge id='Graph46-e13'
      source='4'
      target='5' />
  <edge id='Graph46-e14'
      source='4'
      target='6' />
  <edge id='Graph46-e15'
      source='5'
      target='6' />
 </graph>
</graphml>