<?xml version='1.0' encoding='UTF-8'?>
<graphml>
 <key id='nodeKey1'
     for='node'
     attr.name='VertexCoordinates'
     attr.type='String' />
 <graph id='Graph1'
     edgedefault='undirected'>
  <node id='1'>
   <data key='nodeKey1'>List[1.`, 3.6739403974420594`*^-16]</data>
  </node>
  <node id='2'>
   <data key='nodeKey1'>List[3.`, 0.`]</data>
  </node>
  <node id='3'>
   <data key='nodeKey1'>List[0.`, 4.898587196589413`*^-16]</data>
  </node>
  <node id='4'>
   <data key='nodeKey1'>List[2.`, 2.4492935982947064`*^-16]</data>
  </node>
  <edge id='Graph1-e1'
      source='1'
      target='3' />
  <edge id='Graph1-e2'
      source='1'
      target='4' />
  <edge id='Graph1-e3'
      source='2'
      target='4' />
 </graph>
 <graph id='Graph2'
     edgedefault='undirected'>
  <node id='1'>
   <data key='nodeKey1'>List[2.0321654167353946`, 0.8461865236522466`]</data>
  </node>
  <node id='2'>
   <data key='nodeKey1'>List[0.`, 0.42327056878974745`]</data>
  </node>
  <node id='3'>
   <data key='nodeKey1'>List[2.0314819966695246`, 0.`]</data>
  </node>
  <node id='4'>
   <data key='nodeKey1'>List[1.1138927034156112`, 0.42342372986855265`]</data>
  </node>
  <edge id='Graph2-e1'
      source='1'
      target='3' />
  <edge id='Graph2-e2'
      source='1'
      target='4' />
  <edge id='Graph2-e3'
      source='2'
      target='4' />
  <edge id='Graph2-e4'
      source='3'
      target='4' />
 </graph>
 <graph id='Graph3'
     edgedefault='undirected'>
  <node id='1'>
   <data key='nodeKey1'>List[-1.`, 1.0106430996148606`*^-15]</data>
  </node>
  <node id='2'>
   <data key='nodeKey1'>List[6.049014748177263`*^-16, -1.`]</data>
  </node>
  <node id='3'>
   <data key='nodeKey1'>List[1.`, -1.133107779529596`*^-15]</data>
  </node>
  <node id='4'>
   <data key='nodeKey1'>List[-7.044813998280222`*^-16, 1.`]</data>
  </node>
  <edge id='Graph3-e1'
      source='1'
      target='3' />
  <edge id='Graph3-e2'
      source='1'
      target='4' />
  <edge id='Graph3-e3'
      source='2'
      target='3' />
  <edge id='Graph3-e4'
      source='2'
      target='4' />
 </graph>
 <graph id='Graph4'
     edgedefault='undirected'>
  <node id='1'>
   <data key='nodeKey1'>List[1.8679560464579605`, 0.43481136431138123`]</data>
  </node>
  <node id='2'>
   <data key='nodeKey1'>List[0.`, 0.4347863960793146`]</data>
  </node>
  <node id='3'>
   <data key='nodeKey1'>List[0.9331369518986292`, 0.`]</data>
  </node>
  <node id='4'>
   <data key='nodeKey1'>List[0.9330828110378959`, 0.8691193699594424`]</data>
  </node>
  <edge id='Graph4-e1'
      source='1'
      target='3' />
  <edge id='Graph4-e2'
      source='1'
      target='4' />
  <edge id='Graph4-e3'
      source='2'
      target='3' />
  <edge id='Graph4-e4'
      source='2'
      target='4' />
  <edge id='Graph4-e5'
      source='3'
      target='4' />
 </graph>
 <graph id='Graph5'
     edgedefault='undirected'>
  <node id='1'>
   <data key='nodeKey1'>List[-1.`, 1.0106430996148606`*^-15]</data>
  </node>
  <node id='2'>
   <data key='nodeKey1'>List[6.049014748177263`*^-16, -1.`]</data>
  </node>
  <node id='3'>
   <data key='nodeKey1'>List[1.`, -1.133107779529596`*^-15]</data>
  </node>
  <node id='4'>
   <data key='nodeKey1'>List[-7.044813998280222`*^-16, 1.`]</data>
  </node>
  <edge id='Graph5-e1'
      source='1'
      target='2' />
  <edge id='Graph5-e2'
      source='1'
      target='3' />
  <edge id='Graph5-e3'
      source='1'
      target='4' />
  <edge id='Graph5-e4'
      source='2'
      target='3' />
  <edge id='Graph5-e5'
      source='2'
      target='4' />
  <edge id='Graph5-e6'
      source='3'
      target='4' />
 </graph>
</graphml>