<?xml version='1.0' encoding='UTF-8'?>
<graphml>
 <key id='nodeKey1'
     for='node'
     attr.name='VertexCoordinates'
     attr.type='String' />
 <graph id='Graph1'
     edgedefault='undirected'>
  <node id='1'>
   <data key='nodeKey1'>List[-0.9510565162951538`, 0.3090169943749484`]</data>
  </node>
  <node id='2'>
   <data key='nodeKey1'>List[-0.5877852522924726`, -0.8090169943749468`]</data>
  </node>
  <node id='3'>
   <data key='nodeKey1'>List[0.5877852522924738`, -0.8090169943749481`]</data>
  </node>
  <node id='4'>
   <data key='nodeKey1'>List[0.9510565162951533`, 0.30901699437494634`]</data>
  </node>
  <node id='5'>
   <data key='nodeKey1'>List[-7.044813998280222`*^-16, 1.`]</data>
  </node>
  <edge id='Graph1-e1'
      source='1'
      target='2' />
  <edge id='Graph1-e2'
      source='1'
      target='5' />
  <edge id='Graph1-e3'
      source='2'
      target='3' />
  <edge id='Graph1-e4'
      source='3'
      target='4' />
  <edge id='Graph1-e5'
      source='4'
      target='5' />
 </graph>
 <graph id='Graph2'
     edgedefault='undirected'>
  <node id='1'>
   <data key='nodeKey1'>List[-0.7818314824680302`, 0.6234898018587343`]</data>
  </node>
  <node id='2'>
   <data key='nodeKey1'>List[-0.9749279121818235`, -0.22252093395631342`]</data>
  </node>
  <node id='3'>
   <data key='nodeKey1'>List[-0.43388373911755757`, -0.9009688679024187`]</data>
  </node>
  <node id='4'>
   <data key='nodeKey1'>List[0.43388373911755884`, -0.9009688679024196`]</data>
  </node>
  <node id='5'>
   <data key='nodeKey1'>List[0.9749279121818237`, -0.2225209339563155`]</data>
  </node>
  <node id='6'>
   <data key='nodeKey1'>List[0.7818314824680294`, 0.6234898018587326`]</data>
  </node>
  <node id='7'>
   <data key='nodeKey1'>List[-7.044813998280222`*^-16, 1.`]</data>
  </node>
  <edge id='Graph2-e1'
      source='1'
      target='2' />
  <edge id='Graph2-e2'
      source='1'
      target='7' />
  <edge id='Graph2-e3'
      source='2'
      target='3' />
  <edge id='Graph2-e4'
      source='3'
      target='4' />
  <edge id='Graph2-e5'
      source='4'
      target='5' />
  <edge id='Graph2-e6'
      source='5'
      target='6' />
  <edge id='Graph2-e7'
      source='6'
      target='7' />
 </graph>
 <graph id='Graph3'
     edgedefault='undirected'>
  <node id='1'>
   <data key='nodeKey1'>List[-0.6427876096865398`, 0.7660444431189786`]</data>
  </node>
  <node id='2'>
   <data key='nodeKey1'>List[-0.9848077530122081`, 0.17364817766693114`]</data>
  </node>
  <node id='3'>
   <data key='nodeKey1'>List[-0.8660254037844384`, -0.4999999999999994`]</data>
  </node>
  <node id='4'>
   <data key='nodeKey1'>List[-0.3420201433256684`, -0.9396926207859079`]</data>
  </node>
  <node id='5'>
   <data key='nodeKey1'>List[0.3420201433256691`, -0.9396926207859085`]</data>
  </node>
  <node id='6'>
   <data key='nodeKey1'>List[0.8660254037844389`, -0.5000000000000012`]</data>
  </node>
  <node id='7'>
   <data key='nodeKey1'>List[0.984807753012208`, 0.17364817766692903`]</data>
  </node>
  <node id='8'>
   <data key='nodeKey1'>List[0.6427876096865388`, 0.7660444431189772`]</data>
  </node>
  <node id='9'>
   <data key='nodeKey1'>List[-7.044813998280222`*^-16, 1.`]</data>
  </node>
  <edge id='Graph3-e1'
      source='1'
      target='2' />
  <edge id='Graph3-e2'
      source='1'
      target='9' />
  <edge id='Graph3-e3'
      source='2'
      target='3' />
  <edge id='Graph3-e4'
      source='3'
      target='4' />
  <edge id='Graph3-e5'
      source='4'
      target='5' />
  <edge id='Graph3-e6'
      source='5'
      target='6' />
  <edge id='Graph3-e7'
      source='6'
      target='7' />
  <edge id='Graph3-e8'
      source='7'
      target='8' />
  <edge id='Graph3-e9'
      source='8'
      target='9' />
 </graph>
 <graph id='Graph4'
     edgedefault='undirected'>
  <node id='1'>
   <data key='nodeKey1'>List[-0.7818314824680302`, 0.6234898018587343`]</data>
  </node>
  <node id='2'>
   <data key='nodeKey1'>List[-0.9749279121818235`, -0.22252093395631342`]</data>
  </node>
  <node id='3'>
   <data key='nodeKey1'>List[-0.43388373911755757`, -0.9009688679024187`]</data>
  </node>
  <node id='4'>
   <data key='nodeKey1'>List[0.43388373911755884`, -0.9009688679024196`]</data>
  </node>
  <node id='5'>
   <data key='nodeKey1'>List[0.9749279121818237`, -0.2225209339563155`]</data>
  </node>
  <node id='6'>
   <data key='nodeKey1'>List[0.7818314824680294`, 0.6234898018587326`]</data>
  </node>
  <node id='7'>
   <data key='nodeKey1'>List[-7.044813998280222`*^-16, 1.`]</data>
  </node>
  <edge id='Graph4-e1'
      source='1'
      target='3' />
  <edge id='Graph4-e2'
      source='1'
      target='4' />
  <edge id='Graph4-e3'
      source='1'
      target='5' />
  <edge id='Graph4-e4'
      source='1'
      target='6' />
  <edge id='Graph4-e5'
      source='2'
      target='4' />
  <edge id='Graph4-e6'
      source='2'
      target='5' />
  <edge id='Graph4-e7'
      source='2'
      target='6' />
  <edge id='Graph4-e8'
      source='2'
      target='7' />
  <edge id='Graph4-e9'
      source='3'
      target='5' />
  <edge id='Graph4-e10'
      source='3'
      target='6' />
  <edge id='Graph4-e11'
      source='3'
      target='7' />
  <edge id='Graph4-e12'
      source='4'
      target='6' />
  <edge id='Graph4-e13'
      source='4'
      target='7' />
  <edge id='Graph4-e14'
      source='5'
      target='7' />
 </graph>
 <graph id='Graph5'
     edgedefault='undirected'>
  <node id='1'>
   <data key='nodeKey1'>List[-0.6427876096865398`, 0.7660444431189786`]</data>
  </node>
  <node id='2'>
   <data key='nodeKey1'>List[-0.9848077530122081`, 0.17364817766693114`]</data>
  </node>
  <node id='3'>
   <data key='nodeKey1'>List[-0.8660254037844384`, -0.4999999999999994`]</data>
  </node>
  <node id='4'>
   <data key='nodeKey1'>List[-0.3420201433256684`, -0.9396926207859079`]</data>
  </node>
  <node id='5'>
   <data key='nodeKey1'>List[0.3420201433256691`, -0.9396926207859085`]</data>
  </node>
  <node id='6'>
   <data key='nodeKey1'>List[0.8660254037844389`, -0.5000000000000012`]</data>
  </node>
  <node id='7'>
   <data key='nodeKey1'>List[0.984807753012208`, 0.17364817766692903`]</data>
  </node>
  <node id='8'>
   <data key='nodeKey1'>List[0.6427876096865388`, 0.7660444431189772`]</data>
  </node>
  <node id='9'>
   <data key='nodeKey1'>List[-7.044813998280222`*^-16, 1.`]</data>
  </node>
  <edge id='Graph5-e1'
      source='1'
      target='3' />
  <edge id='Graph5-e2'
      source='1'
      target='4' />
  <edge id='Graph5-e3'
      source='1'
      target='5' />
  <edge id='Graph5-e4'
      source='1'
      target='6' />
  <edge id='Graph5-e5'
      source='1'
      target='7' />
  <edge id='Graph5-e6'
      source='1'
      target='8' />
  <edge id='Graph5-e7'
      source='2'
      target='4' />
  <edge id='Graph5-e8'
      source='2'
      target='5' />
  <edge id='Graph5-e9'
      source='2'
      target='6' />
  <edge id='Graph5-e10'
      source='2'
      target='7' />
  <edge id='Graph5-e11'
      source='2'
      target='8' />
  <edge id='Graph5-e12'
      source='2'
      target='9' />
  <edge id='Graph5-e13'
      source='3'
      target='5' />
  <edge id='Graph5-e14'
      source='3'
      target='6' />
  <edge id='Graph5-e15'
      source='3'
      target='7' />
  <edge id='Graph5-e16'
      source='3'
      target='8' />
  <edge id='Graph5-e17'
      source='3'
      target='9' />
  <edge id='Graph5-e18'
      source='4'
      target='6' />
  <edge id='Graph5-e19'
      source='4'
      target='7' />
  <edge id='Graph5-e20'
      source='4'
      target='8' />
  <edge id='Graph5-e21'
      source='4'
      target='9' />
  <edge id='Graph5-e22'
      source='5'
      target='7' />
  <edge id='Graph5-e23'
      source='5'
      target='8' />
  <edge id='Graph5-e24'
      source='5'
      target='9' />
  <edge id='Graph5-e25'
      source='6'
      target='8' />
  <edge id='Graph5-e26'
      source='6'
      target='9' />
  <edge id='Graph5-e27'
      source='7'
      target='9' />
 </graph>
</graphml>